{
  "name": "Workspace Auto Back Forth",
  "description": "Switch to workspaces auto back and forth when pressing the same combination of the current workspace",
  "uuid": "workspaceautobackforth@peterge.de",
  "shell-version": [
    "41"
  ]
}
